# Fdb version 3
["pdflatex"] 1426262119 "poster.tex" "poster.pdf" "poster" 1426262120
  "/usr/share/texmf-dist/tex/context/base/supp-pdf.mkii" 1407968442 71627 94eb9990bed73c364d7f53f960cc8c5b ""
  "/usr/share/texmf-dist/tex/generic/ifxetex/ifxetex.sty" 1407968440 1458 43ab4710dc82f3edeabecd0d099626b2 ""
  "/usr/share/texmf-dist/tex/generic/oberdiek/etexcmds.sty" 1407968440 7612 c47308d923ec19888707b0f1792b326a ""
  "/usr/share/texmf-dist/tex/generic/oberdiek/ifluatex.sty" 1407968440 7324 11d14f318d865f420e692d4e6c9c18c3 ""
  "/usr/share/texmf-dist/tex/generic/oberdiek/ifpdf.sty" 1407968440 7140 ece2cc23d9f20e1f53975ac167f42d3e ""
  "/usr/share/texmf-dist/tex/generic/oberdiek/ifvtex.sty" 1407968440 6797 68c89f65e01894df882dd523d3fc0a8f ""
  "/usr/share/texmf-dist/tex/generic/oberdiek/infwarerr.sty" 1407968440 8253 3bdedc8409aa5d290a2339be6f09af03 ""
  "/usr/share/texmf-dist/tex/generic/oberdiek/kvdefinekeys.sty" 1407968440 5152 387d9200f396b498d5fd679ae44ed898 ""
  "/usr/share/texmf-dist/tex/generic/oberdiek/kvsetkeys.sty" 1407968440 14040 8de9f47fabc4ca3bd69b6d795e32751c ""
  "/usr/share/texmf-dist/tex/generic/oberdiek/ltxcmds.sty" 1407968440 18425 775b341047ce304520cc7c11ca41392e ""
  "/usr/share/texmf-dist/tex/generic/oberdiek/pdftexcmds.sty" 1407968440 19987 01cb2f3c1d21e5f05711b7fd50b17f2a ""
  "/usr/share/texmf-dist/tex/latex/base/article.cls" 1407968439 20496 66dd832c447553f6776fbeac03bb0580 ""
  "/usr/share/texmf-dist/tex/latex/base/fontenc.sty" 1407968439 4360 ff7a73ddc57baaf1815161c4698e9fb4 ""
  "/usr/share/texmf-dist/tex/latex/base/size12.clo" 1407968439 8978 ae5f64dacfe4ff1b713dec8fd98fb590 ""
  "/usr/share/texmf-dist/tex/latex/base/t1enc.def" 1407968439 9097 3d740f5a942bdde0d974eb1398aae41c ""
  "/usr/share/texmf-dist/tex/latex/geometry/geometry.sty" 1407968439 40502 e003406220954b0716679d7928aedd8a ""
  "/usr/share/texmf-dist/tex/latex/graphics/graphics.sty" 1407968439 14183 42a8fc761b806986eef292369afc2988 ""
  "/usr/share/texmf-dist/tex/latex/graphics/graphicx.sty" 1407968439 7911 bf0a64f89bfb668c239ddf6324bf4afb ""
  "/usr/share/texmf-dist/tex/latex/graphics/keyval.sty" 1407968439 2317 0ace13e225e9d95dd9defe947adc9fbb ""
  "/usr/share/texmf-dist/tex/latex/graphics/trig.sty" 1407968439 3153 c50e6bd54d2dd3933fc52bcf369bec4a ""
  "/usr/share/texmf-dist/tex/latex/latexconfig/color.cfg" 1407968439 802 7b8c8d72c24d795ed7720e4dfd29bff3 ""
  "/usr/share/texmf-dist/tex/latex/latexconfig/epstopdf-sys.cfg" 1407968439 678 4792914a8f45be57bb98413425e4c7af ""
  "/usr/share/texmf-dist/tex/latex/latexconfig/graphics.cfg" 1407968439 3563 d35e897cae3b8c6848f6677b73370b54 ""
  "/usr/share/texmf-dist/tex/latex/lm/lmodern.sty" 1407968439 1606 c17281c7cff2bbd7ff0173e1433487ec ""
  "/usr/share/texmf-dist/tex/latex/lm/t1lmtt.fd" 1407968439 2681 354015af3b61e7be30009f084986375a ""
  "/usr/share/texmf-dist/tex/latex/oberdiek/epstopdf-base.sty" 1407968439 12029 04d7fdf76e0464c23b5aa3a727952d7c ""
  "/usr/share/texmf-dist/tex/latex/oberdiek/grfext.sty" 1407968439 7075 bd0c34fbf1ae8fd1debd2a554e41b2d5 ""
  "/usr/share/texmf-dist/tex/latex/oberdiek/kvoptions.sty" 1407968439 22417 c74ff4af6a1aa2b65d1924020edbbe11 ""
  "/usr/share/texmf-dist/tex/latex/pdftex-def/pdftex.def" 1407968439 55368 3c8a0d99822330f2dfabc0dfb09ce897 ""
  "/usr/share/texmf-dist/tex/latex/xcolor/xcolor.sty" 1407968439 55224 a43bab84e0ac5e6efcaf9a98bde73a94 ""
  "RANDOM-DATA-transp.pdf" 1426062935 10124 7a5df1fdb6027896221632afc50c6592 ""
  "poster.aux" 1426262120 8 a94a2480d3289e625eea47cd1b285758 ""
  "poster.tex" 1426262118 1883 17544331ed79b049f7d6384847b83299 ""
  (generated)
  "poster.log"
  "poster.aux"
  "poster.pdf"
